Aquisitions/ALL0003/F0003CH2.CSV

Record Length,2.500000e+03,,  -0.208000000000,   0.00000,
Sample Interval,4.000000e-04,,  -0.207600000000,   0.00000,
Trigger Point,5.200000000000e+02,,  -0.207200000000,   0.00000,
,,,  -0.206800000000,   0.40000,
,,,  -0.206400000000,   0.00000,
,,,  -0.206000000000,   0.00000,
Source,CH2,,  -0.205600000000,   0.00000,
Vertical Units,A,,  -0.205200000000,   0.00000,
Vertical Scale,1.000000e+01,,  -0.204800000000,   0.40000,
Vertical Offset,0.000000e+00,,  -0.204400000000,   0.00000,
Horizontal Units,s,,  -0.204000000000,   0.00000,
Horizontal Scale,1.000000e-01,,  -0.203600000000,   0.00000,
Pt Fmt,Y,,  -0.203200000000,   0.00000,
Yzero,0.000000e+00,,  -0.202800000000,   0.00000,
Probe Atten,1.000000e+01,,  -0.202400000000,   0.00000,
Model Number,TDS2001C,,  -0.202000000000,   0.00000,
Serial Number,C015396,,  -0.201600000000,   0.00000,
Firmware Version,FV:v24.18,,  -0.201200000000,   0.00000,
,,,-00.200800000000,   0.00000,
,,,-00.200400000000,   0.00000,
,,,-00.200000000000,   0.00000,
,,,-00.199600000000,   0.00000,
,,,-00.199200000000,   0.40000,
,,,-00.198800000000,   0.40000,
,,,-00.198400000000,   0.40000,
,,,-00.198000000000,   0.00000,
,,,-00.197600000000,   0.00000,
,,,-00.197200000000,   0.00000,
,,,-00.196800000000,   0.00000,
,,,-00.196400000000,   0.00000,
,,,-00.196000000000,   0.00000,
,,,-00.195600000000,   0.00000,
,,,-00.195200000000,   0.00000,
,,,-00.194800000000,   0.40000,
,,,-00.194400000000,   0.40000,
,,,-00.194000000000,   0.00000,
,,,-00.193600000000,   0.00000,
,,,-00.193200000000,   0.00000,
,,,-00.192800000000,   0.40000,
,,,-00.192400000000,   0.00000,
,,,-00.192000000000,   0.00000,
,,,-00.191600000000,   0.00000,
,,,-00.191200000000,   0.00000,
,,,-00.190800000000,   0.00000,
,,,-00.190400000000,   0.00000,
,,,-00.190000000000,   0.00000,
,,,-00.189600000000,   0.00000,
,,,-00.189200000000,   0.00000,
,,,-00.188800000000,   0.00000,
,,,-00.188400000000,   0.40000,
,,,-00.188000000000,   0.00000,
,,,-00.187600000000,   0.00000,
,,,-00.187200000000,   0.40000,
,,,-00.186800000000,   0.00000,
,,,-00.186400000000,   0.00000,
,,,-00.186000000000,   0.00000,
,,,-00.185600000000,   0.40000,
,,,-00.185200000000,   0.00000,
,,,-00.184800000000,   0.40000,
,,,-00.184400000000,   0.00000,
,,,-00.184000000000,   0.40000,
,,,-00.183600000000,   0.00000,
,,,-00.183200000000,   0.00000,
,,,-00.182800000000,   0.00000,
,,,-00.182400000000,   0.00000,
,,,-00.182000000000,   0.00000,
,,,-00.181600000000,   0.40000,
,,,-00.181200000000,   0.40000,
,,,-00.180800000000,   0.40000,
,,,-00.180400000000,   0.00000,
,,,-00.180000000000,   0.00000,
,,,-00.179600000000,   0.00000,
,,,-00.179200000000,   0.40000,
,,,-00.178800000000,   0.00000,
,,,-00.178400000000,   0.00000,
,,,-00.178000000000,   0.00000,
,,,-00.177600000000,   0.00000,
,,,-00.177200000000,   0.00000,
,,,-00.176800000000,   0.00000,
,,,-00.176400000000,   0.00000,
,,,-00.176000000000,   0.00000,
,,,-00.175600000000,   0.00000,
,,,-00.175200000000,   0.00000,
,,,-00.174800000000,   0.00000,
,,,-00.174400000000,   0.00000,
,,,-00.174000000000,   0.00000,
,,,-00.173600000000,   0.00000,
,,,-00.173200000000,   0.00000,
,,,-00.172800000000,   0.00000,
,,,-00.172400000000,   0.00000,
,,,-00.172000000000,   0.00000,
,,,-00.171600000000,   0.40000,
,,,-00.171200000000,   0.00000,
,,,-00.170800000000,   0.00000,
,,,-00.170400000000,   0.00000,
,,,-00.170000000000,   0.40000,
,,,-00.169600000000,   0.00000,
,,,-00.169200000000,   0.00000,
,,,-00.168800000000,   0.40000,
,,,-00.168400000000,   0.00000,
,,,-00.168000000000,   0.40000,
,,,-00.167600000000,   0.40000,
,,,-00.167200000000,   0.40000,
,,,-00.166800000000,   0.00000,
,,,-00.166400000000,   0.00000,
,,,-00.166000000000,   0.00000,
,,,-00.165600000000,   0.40000,
,,,-00.165200000000,   0.00000,
,,,-00.164800000000,   0.00000,
,,,-00.164400000000,   0.00000,
,,,-00.164000000000,   0.00000,
,,,-00.163600000000,   0.40000,
,,,-00.163200000000,   0.40000,
,,,-00.162800000000,   0.40000,
,,,-00.162400000000,   0.40000,
,,,-00.162000000000,   0.40000,
,,,-00.161600000000,   0.00000,
,,,-00.161200000000,   0.40000,
,,,-00.160800000000,   0.00000,
,,,-00.160400000000,   0.00000,
,,,-00.160000000000,   0.00000,
,,,-00.159600000000,   0.00000,
,,,-00.159200000000,   0.00000,
,,,-00.158800000000,   0.00000,
,,,-00.158400000000,   0.40000,
,,,-00.158000000000,   0.40000,
,,,-00.157600000000,   0.00000,
,,,-00.157200000000,   0.40000,
,,,-00.156800000000,   0.00000,
,,,-00.156400000000,   0.40000,
,,,-00.156000000000,   0.40000,
,,,-00.155600000000,   0.00000,
,,,-00.155200000000,   0.00000,
,,,-00.154800000000,   0.00000,
,,,-00.154400000000,   0.00000,
,,,-00.154000000000,   0.00000,
,,,-00.153600000000,   0.40000,
,,,-00.153200000000,   0.00000,
,,,-00.152800000000,   0.00000,
,,,-00.152400000000,   0.00000,
,,,-00.152000000000,   0.00000,
,,,-00.151600000000,   0.00000,
,,,-00.151200000000,   0.00000,
,,,-00.150800000000,   0.00000,
,,,-00.150400000000,   0.00000,
,,,-00.150000000000,   0.00000,
,,,-00.149600000000,   0.40000,
,,,-00.149200000000,   0.00000,
,,,-00.148800000000,   0.40000,
,,,-00.148400000000,   0.00000,
,,,-00.148000000000,   0.40000,
,,,-00.147600000000,   0.00000,
,,,-00.147200000000,   0.00000,
,,,-00.146800000000,   0.40000,
,,,-00.146400000000,   0.00000,
,,,-00.146000000000,   0.40000,
,,,-00.145600000000,   0.00000,
,,,-00.145200000000,   0.00000,
,,,-00.144800000000,   0.00000,
,,,-00.144400000000,   0.00000,
,,,-00.144000000000,   0.40000,
,,,-00.143600000000,   0.00000,
,,,-00.143200000000,   0.40000,
,,,-00.142800000000,   0.00000,
,,,-00.142400000000,   0.00000,
,,,-00.142000000000,   0.00000,
,,,-00.141600000000,   0.00000,
,,,-00.141200000000,   0.40000,
,,,-00.140800000000,   0.00000,
,,,-00.140400000000,   0.40000,
,,,-00.140000000000,   0.40000,
,,,-00.139600000000,   0.00000,
,,,-00.139200000000,   0.40000,
,,,-00.138800000000,   0.40000,
,,,-00.138400000000,   0.00000,
,,,-00.138000000000,   0.00000,
,,,-00.137600000000,   0.00000,
,,,-00.137200000000,   0.00000,
,,,-00.136800000000,   0.40000,
,,,-00.136400000000,   0.40000,
,,,-00.136000000000,   0.00000,
,,,-00.135600000000,   0.00000,
,,,-00.135200000000,   0.00000,
,,,-00.134800000000,   0.40000,
,,,-00.134400000000,   0.00000,
,,,-00.134000000000,   0.00000,
,,,-00.133600000000,   0.40000,
,,,-00.133200000000,   0.00000,
,,,-00.132800000000,   0.00000,
,,,-00.132400000000,   0.00000,
,,,-00.132000000000,   0.00000,
,,,-00.131600000000,   0.00000,
,,,-00.131200000000,   0.00000,
,,,-00.130800000000,   0.00000,
,,,-00.130400000000,   0.00000,
,,,-00.130000000000,   0.00000,
,,,-00.129600000000,   0.00000,
,,,-00.129200000000,   0.00000,
,,,-00.128800000000,   0.00000,
,,,-00.128400000000,   0.00000,
,,,-00.128000000000,   0.00000,
,,,-00.127600000000,   0.00000,
,,,-00.127200000000,   0.00000,
,,,-00.126800000000,   0.00000,
,,,-00.126400000000,   0.00000,
,,,-00.126000000000,   0.00000,
,,,-00.125600000000,   0.00000,
,,,-00.125200000000,   0.00000,
,,,-00.124800000000,   0.00000,
,,,-00.124400000000,   0.00000,
,,,-00.124000000000,   0.00000,
,,,-00.123600000000,   0.00000,
,,,-00.123200000000,   0.00000,
,,,-00.122800000000,   0.40000,
,,,-00.122400000000,   0.00000,
,,,-00.122000000000,   0.40000,
,,,-00.121600000000,   0.00000,
,,,-00.121200000000,   0.40000,
,,,-00.120800000000,   0.00000,
,,,-00.120400000000,   0.00000,
,,,-00.120000000000,   0.00000,
,,,-00.119600000000,   0.00000,
,,,-00.119200000000,   0.00000,
,,,-00.118800000000,   0.00000,
,,,-00.118400000000,   0.00000,
,,,-00.118000000000,   0.00000,
,,,-00.117600000000,   0.00000,
,,,-00.117200000000,   0.00000,
,,,-00.116800000000,   0.00000,
,,,-00.116400000000,   0.40000,
,,,-00.116000000000,   0.40000,
,,,-00.115600000000,   0.40000,
,,,-00.115200000000,   0.00000,
,,,-00.114800000000,   0.00000,
,,,-00.114400000000,   0.00000,
,,,-00.114000000000,   0.40000,
,,,-00.113600000000,   0.00000,
,,,-00.113200000000,   0.00000,
,,,-00.112800000000,   0.00000,
,,,-00.112400000000,   0.00000,
,,,-00.112000000000,   0.00000,
,,,-00.111600000000,   0.00000,
,,,-00.111200000000,   0.00000,
,,,-00.110800000000,   0.00000,
,,,-00.110400000000,   0.40000,
,,,-00.110000000000,   0.00000,
,,,-00.109600000000,   0.00000,
,,,-00.109200000000,   0.00000,
,,,-00.108800000000,   0.00000,
,,,-00.108400000000,   0.40000,
,,,-00.108000000000,   0.40000,
,,,-00.107600000000,   0.00000,
,,,-00.107200000000,   0.00000,
,,,-00.106800000000,   0.00000,
,,,-00.106400000000,   0.40000,
,,,-00.106000000000,   0.00000,
,,,-00.105600000000,   0.00000,
,,,-00.105200000000,   0.00000,
,,,-00.104800000000,   0.00000,
,,,-00.104400000000,   0.00000,
,,,-00.104000000000,   0.00000,
,,,-00.103600000000,   0.40000,
,,,-00.103200000000,   0.00000,
,,,-00.102800000000,   0.40000,
,,,-00.102400000000,   0.00000,
,,,-00.102000000000,   0.00000,
,,,-00.101600000000,   0.40000,
,,,-00.101200000000,   0.00000,
,,,-00.100800000000,   0.00000,
,,,-00.100400000000,   0.40000,
,,,-00.100000000000,   0.00000,
,,,-00.099600000000,   0.00000,
,,,-00.099200000000,   0.00000,
,,,-00.098800000000,   0.00000,
,,,-00.098400000000,   0.40000,
,,,-00.098000000000,   0.40000,
,,,-00.097600000000,   0.00000,
,,,-00.097200000000,   0.40000,
,,,-00.096800000000,   0.40000,
,,,-00.096400000000,   0.00000,
,,,-00.096000000000,   0.00000,
,,,-00.095600000000,   0.00000,
,,,-00.095200000000,   0.00000,
,,,-00.094800000000,   0.00000,
,,,-00.094400000000,   0.00000,
,,,-00.094000000000,   0.00000,
,,,-00.093600000000,   0.00000,
,,,-00.093200000000,   0.40000,
,,,-00.092800000000,   0.00000,
,,,-00.092400000000,   0.00000,
,,,-00.092000000000,   0.00000,
,,,-00.091600000000,   0.00000,
,,,-00.091200000000,   0.40000,
,,,-00.090800000000,   0.00000,
,,,-00.090400000000,   0.00000,
,,,-00.090000000000,   0.00000,
,,,-00.089600000000,   0.00000,
,,,-00.089200000000,   0.00000,
,,,-00.088800000000,   0.40000,
,,,-00.088400000000,   0.00000,
,,,-00.088000000000,   0.00000,
,,,-00.087600000000,   0.00000,
,,,-00.087200000000,   0.00000,
,,,-00.086800000000,   0.00000,
,,,-00.086400000000,   0.00000,
,,,-00.086000000000,   0.00000,
,,,-00.085600000000,   0.00000,
,,,-00.085200000000,   0.00000,
,,,-00.084800000000,   0.00000,
,,,-00.084400000000,   0.00000,
,,,-00.084000000000,   0.00000,
,,,-00.083600000000,   0.00000,
,,,-00.083200000000,   0.40000,
,,,-00.082800000000,   0.00000,
,,,-00.082400000000,   0.00000,
,,,-00.082000000000,   0.00000,
,,,-00.081600000000,   0.00000,
,,,-00.081200000000,   0.00000,
,,,-00.080800000000,   0.00000,
,,,-00.080400000000,   0.00000,
,,,-00.080000000000,   0.00000,
,,,-00.079600000000,   0.00000,
,,,-00.079200000000,   0.00000,
,,,-00.078800000000,   0.40000,
,,,-00.078400000000,   0.00000,
,,,-00.078000000000,   0.00000,
,,,-00.077600000000,   0.40000,
,,,-00.077200000000,   0.40000,
,,,-00.076800000000,   0.00000,
,,,-00.076400000000,   0.00000,
,,,-00.076000000000,   0.00000,
,,,-00.075600000000,   0.00000,
,,,-00.075200000000,   0.00000,
,,,-00.074800000000,   0.00000,
,,,-00.074400000000,   0.00000,
,,,-00.074000000000,   0.40000,
,,,-00.073600000000,   0.00000,
,,,-00.073200000000,   0.00000,
,,,-00.072800000000,   0.00000,
,,,-00.072400000000,   0.00000,
,,,-00.072000000000,   0.00000,
,,,-00.071600000000,   0.00000,
,,,-00.071200000000,   0.00000,
,,,-00.070800000000,   0.00000,
,,,-00.070400000000,   0.00000,
,,,-00.070000000000,   0.40000,
,,,-00.069600000000,   0.00000,
,,,-00.069200000000,   0.40000,
,,,-00.068800000000,   0.00000,
,,,-00.068400000000,   0.00000,
,,,-00.068000000000,   0.40000,
,,,-00.067600000000,   0.00000,
,,,-00.067200000000,   0.40000,
,,,-00.066800000000,   0.00000,
,,,-00.066400000000,   0.00000,
,,,-00.066000000000,   0.00000,
,,,-00.065600000000,   0.00000,
,,,-00.065200000000,   0.00000,
,,,-00.064800000000,   0.00000,
,,,-00.064400000000,   0.00000,
,,,-00.064000000000,   0.00000,
,,,-00.063600000000,   0.40000,
,,,-00.063200000000,   0.00000,
,,,-00.062800000000,   0.00000,
,,,-00.062400000000,   0.00000,
,,,-00.062000000000,   0.40000,
,,,-00.061600000000,   0.00000,
,,,-00.061200000000,   0.00000,
,,,-00.060800000000,   0.00000,
,,,-00.060400000000,   0.00000,
,,,-00.060000000000,   0.00000,
,,,-00.059600000000,   0.40000,
,,,-00.059200000000,   0.00000,
,,,-00.058800000000,   0.00000,
,,,-00.058400000000,   0.00000,
,,,-00.058000000000,   0.00000,
,,,-00.057600000000,   0.00000,
,,,-00.057200000000,   0.00000,
,,,-00.056800000000,   0.00000,
,,,-00.056400000000,   0.00000,
,,,-00.056000000000,   0.00000,
,,,-00.055600000000,   0.00000,
,,,-00.055200000000,   0.00000,
,,,-00.054800000000,   0.00000,
,,,-00.054400000000,   0.40000,
,,,-00.054000000000,   0.00000,
,,,-00.053600000000,   0.40000,
,,,-00.053200000000,   0.00000,
,,,-00.052800000000,   0.00000,
,,,-00.052400000000,   0.00000,
,,,-00.052000000000,   0.00000,
,,,-00.051600000000,   0.00000,
,,,-00.051200000000,   0.00000,
,,,-00.050800000000,   0.00000,
,,,-00.050400000000,   0.00000,
,,,-00.050000000000,   0.00000,
,,,-00.049600000000,   0.00000,
,,,-00.049200000000,   0.00000,
,,,-00.048800000000,   0.00000,
,,,-00.048400000000,   0.00000,
,,,-00.048000000000,   0.40000,
,,,-00.047600000000,   0.00000,
,,,-00.047200000000,   0.00000,
,,,-00.046800000000,   0.40000,
,,,-00.046400000000,   0.00000,
,,,-00.046000000000,   0.00000,
,,,-00.045600000000,   0.40000,
,,,-00.045200000000,   0.00000,
,,,-00.044800000000,   0.00000,
,,,-00.044400000000,   0.00000,
,,,-00.044000000000,   0.00000,
,,,-00.043600000000,   0.00000,
,,,-00.043200000000,   0.00000,
,,,-00.042800000000,   0.00000,
,,,-00.042400000000,   0.00000,
,,,-00.042000000000,   0.00000,
,,,-00.041600000000,   0.40000,
,,,-00.041200000000,   0.00000,
,,,-00.040800000000,   0.40000,
,,,-00.040400000000,   0.00000,
,,,-00.040000000000,   0.00000,
,,,-00.039600000000,   0.00000,
,,,-00.039200000000,   0.40000,
,,,-00.038800000000,   0.00000,
,,,-00.038400000000,   0.00000,
,,,-00.038000000000,   0.40000,
,,,-00.037600000000,   0.00000,
,,,-00.037200000000,   0.00000,
,,,-00.036800000000,   0.00000,
,,,-00.036400000000,   0.00000,
,,,-00.036000000000,   0.00000,
,,,-00.035600000000,   0.00000,
,,,-00.035200000000,   0.00000,
,,,-00.034800000000,   0.00000,
,,,-00.034400000000,   0.00000,
,,,-00.034000000000,   0.00000,
,,,-00.033600000000,   0.40000,
,,,-00.033200000000,   0.00000,
,,,-00.032800000000,   0.40000,
,,,-00.032400000000,   0.00000,
,,,-00.032000000000,   0.00000,
,,,-00.031600000000,   0.00000,
,,,-00.031200000000,   0.00000,
,,,-00.030800000000,   0.00000,
,,,-00.030400000000,   0.00000,
,,,-00.030000000000,   0.40000,
,,,-00.029600000000,   0.40000,
,,,-00.029200000000,   0.00000,
,,,-00.028800000000,   0.00000,
,,,-00.028400000000,   0.00000,
,,,-00.028000000000,   0.00000,
,,,-00.027600000000,   0.40000,
,,,-00.027200000000,   0.00000,
,,,-00.026800000000,   0.00000,
,,,-00.026400000000,   0.40000,
,,,-00.026000000000,   0.40000,
,,,-00.025600000000,   0.00000,
,,,-00.025200000000,   0.00000,
,,,-00.024800000000,   0.00000,
,,,-00.024400000000,   0.00000,
,,,-00.024000000000,   0.00000,
,,,-00.023600000000,   0.40000,
,,,-00.023200000000,   0.00000,
,,,-00.022800000000,   0.40000,
,,,-00.022400000000,   0.40000,
,,,-00.022000000000,   0.00000,
,,,-00.021600000000,   0.00000,
,,,-00.021200000000,   0.00000,
,,,-00.020800000000,   0.00000,
,,,-00.020400000000,   0.00000,
,,,-00.020000000000,   0.00000,
,,,-00.019600000000,   0.00000,
,,,-00.019200000000,   0.00000,
,,,-00.018800000000,   0.00000,
,,,-00.018400000000,   0.00000,
,,,-00.018000000000,   0.00000,
,,,-00.017600000000,   0.00000,
,,,-00.017200000000,   0.00000,
,,,-00.016800000000,   0.00000,
,,,-00.016400000000,   0.40000,
,,,-00.016000000000,   0.00000,
,,,-00.015600000000,   0.00000,
,,,-00.015200000000,   0.00000,
,,,-00.014800000000,   0.00000,
,,,-00.014400000000,   0.00000,
,,,-00.014000000000,   0.00000,
,,,-00.013600000000,   0.00000,
,,,-00.013200000000,   0.00000,
,,,-00.012800000000,   0.00000,
,,,-00.012400000000,   0.00000,
,,,-00.012000000000,   0.00000,
,,,-00.011600000000,   0.00000,
,,,-00.011200000000,   0.00000,
,,,-00.010800000000,   0.00000,
,,,-00.010400000000,   0.00000,
,,,-00.010000000000,   0.00000,
,,,-00.009600000000,   0.00000,
,,,-00.009200000000,   0.00000,
,,,-00.008800000000,   0.00000,
,,,-00.008400000000,   0.00000,
,,,-00.008000000000,   0.00000,
,,,-00.007600000000,   0.00000,
,,,-00.007200000000,   0.00000,
,,,-00.006800000000,   0.00000,
,,,-00.006400000000,   0.00000,
,,,-00.006000000000,   0.00000,
,,,-00.005600000000,   0.00000,
,,,-00.005200000000,   0.00000,
,,,-00.004800000000,   0.00000,
,,,-00.004400000000,   0.40000,
,,,-00.004000000000,   0.00000,
,,,-00.003600000000,   0.00000,
,,,-00.003200000000,   0.00000,
,,,-00.002800000000,   0.40000,
,,,-00.002400000000,   0.00000,
,,,-00.002000000000,   0.40000,
,,,-00.001600000000,   0.00000,
,,,-00.001200000000,   0.00000,
,,,-00.000800000000,   0.00000,
,,,-00.000400000000,   0.00000,
,,,-00.000000000000,   0.00000,
,,,00.000400000000,   0.40000,
,,,00.000800000000,   0.00000,
,,,00.001200000000,   0.00000,
,,,00.001600000000,   0.00000,
,,,00.002000000000,  -0.80000,
,,,00.002400000000,  -1.20000,
,,,00.002800000000,  -0.80000,
,,,00.003200000000,   0.00000,
,,,00.003600000000,   1.60000,
,,,00.004000000000,   4.00000,
,,,00.004400000000,   6.80000,
,,,00.004800000000,  10.00000,
,,,00.005200000000,  14.00000,
,,,00.005600000000,  18.00000,
,,,00.006000000000,  22.00000,
,,,00.006400000000,  25.60000,
,,,00.006800000000,  26.00000,
,,,00.007200000000,  25.60000,
,,,00.007600000000,  25.20000,
,,,00.008000000000,  24.80000,
,,,00.008400000000,  24.40000,
,,,00.008800000000,  24.00000,
,,,00.009200000000,  23.60000,
,,,00.009600000000,  22.80000,
,,,00.010000000000,  22.40000,
,,,00.010400000000,  22.40000,
,,,00.010800000000,  21.60000,
,,,00.011200000000,  21.60000,
,,,00.011600000000,  21.20000,
,,,00.012000000000,  20.80000,
,,,00.012400000000,  20.40000,
,,,00.012800000000,  20.00000,
,,,00.013200000000,  14.80000,
,,,00.013600000000,  10.00000,
,,,00.014000000000,   4.80000,
,,,00.014400000000,   0.00000,
,,,00.014800000000,  -4.80000,
,,,00.015200000000,  -9.20000,
,,,00.015600000000, -13.60000,
,,,00.016000000000, -18.40000,
,,,00.016400000000, -22.80000,
,,,00.016800000000, -26.80000,
,,,00.017200000000, -30.00000,
,,,00.017600000000, -32.80000,
,,,00.018000000000, -35.20000,
,,,00.018400000000, -37.20000,
,,,00.018800000000, -38.40000,
,,,00.019200000000, -39.20000,
,,,00.019600000000, -39.20000,
,,,00.020000000000, -38.80000,
,,,00.020400000000, -38.00000,
,,,00.020800000000, -36.80000,
,,,00.021200000000, -35.20000,
,,,00.021600000000, -32.80000,
,,,00.022000000000, -30.40000,
,,,00.022400000000, -26.40000,
,,,00.022800000000, -22.00000,
,,,00.023200000000, -17.20000,
,,,00.023600000000, -12.40000,
,,,00.024000000000,  -7.60000,
,,,00.024400000000,  -3.20000,
,,,00.024800000000,   0.80000,
,,,00.025200000000,   5.20000,
,,,00.025600000000,  10.40000,
,,,00.026000000000,  15.60000,
,,,00.026400000000,  20.40000,
,,,00.026800000000,  24.80000,
,,,00.027200000000,  28.00000,
,,,00.027600000000,  28.80000,
,,,00.028000000000,  28.40000,
,,,00.028400000000,  27.60000,
,,,00.028800000000,  27.20000,
,,,00.029200000000,  26.80000,
,,,00.029600000000,  26.40000,
,,,00.030000000000,  26.00000,
,,,00.030400000000,  25.20000,
,,,00.030800000000,  24.80000,
,,,00.031200000000,  24.40000,
,,,00.031600000000,  24.00000,
,,,00.032000000000,  23.60000,
,,,00.032400000000,  23.20000,
,,,00.032800000000,  21.20000,
,,,00.033200000000,  17.20000,
,,,00.033600000000,  13.20000,
,,,00.034000000000,   8.40000,
,,,00.034400000000,   3.60000,
,,,00.034800000000,  -0.80000,
,,,00.035200000000,  -4.40000,
,,,00.035600000000,  -8.40000,
,,,00.036000000000, -12.80000,
,,,00.036400000000, -17.60000,
,,,00.036800000000, -21.60000,
,,,00.037200000000, -25.20000,
,,,00.037600000000, -28.00000,
,,,00.038000000000, -30.00000,
,,,00.038400000000, -31.20000,
